<svg width="auto" height="auto" viewBox="0 0 1920 595" fill="none" xmlns="http://www.w3.org/2000/svg">
    <path fill-rule="evenodd" clip-rule="evenodd" 
        d="M1920 594.367V360.621C1646.09 516.957 1470.71 443.985 1302.37 373.942C1230.11 343.873 1159.14 314.344 1082.23 303.727C946.894 285.044 825.09 
        301.303 714.554 316.057C525.949 341.233 370.151 362.03 235.915 197.397C163.423 108.491 80.429 43.3395 0 0V594.367H1920Z" 
        fill="#C7E7CE"/>
</svg>
