<svg width="149" height="139" viewBox="0 0 149 139" fill="none" xmlns="http://www.w3.org/2000/svg">
<path d="M37 99.32H49.36V126.72H37V121.64H44.12V104.36H37V99.32ZM33.64 99.32H38.88V129.56H33.64V99.32ZM36.84 109.76H46.6V114.76H36.84V109.76ZM39.08 92.8L45.44 93.68C44.48 96.52 43.44 99.4 42.64 101.32L38 100.32C38.48 98.16 38.96 95.08 39.08 92.8ZM54.4 98.92H65.76V104.2H54.4V98.92ZM63.76 98.92H69.12C69.12 98.92 69.12 100.76 69.08 101.44C68.6 119.24 68.2 125.72 66.52 127.92C65.28 129.68 64.04 130.16 62.28 130.48C60.68 130.76 58.2 130.72 55.8 130.64C55.72 129.08 54.92 126.6 53.88 125C56.44 125.24 58.84 125.24 59.92 125.24C60.72 125.24 61.16 125.08 61.68 124.52C62.96 123.16 63.4 116.16 63.76 100V98.92ZM54.12 92.92L59.72 94.24C58.08 100.12 55.36 106.32 52.64 110.16C51.6 109.2 49.2 107.52 47.88 106.76C50.52 103.48 52.84 98.08 54.12 92.92ZM52.08 111.12L56.64 108.56C58.44 111.28 61.04 115.08 62.24 117.44L57.32 120.44C56.28 118 53.88 114.08 52.08 111.12ZM100.84 103.44H114.6V108.08H100.84V103.44ZM98.28 109.84H115.4V114.44H102.56V130.8H98.28V109.84ZM100 117.72H115.96V122.28H100V117.72ZM113.6 109.84H117.92V125.72C117.92 127.52 117.76 128.88 116.8 129.68C115.84 130.44 114.84 130.56 113.52 130.56C113.36 129.24 112.8 127.24 112.2 126C112.68 126 113.08 126 113.28 126C113.52 126 113.6 125.92 113.6 125.64V109.84ZM103.76 111.68H107.64V130.2H103.76V111.68ZM108.64 111.68H112.48V130.2H108.64V111.68ZM107.12 92.16L111.16 94.08C108.04 99.76 103.28 104.76 98.88 108.08C98.04 106.68 96.6 104.84 95.24 103.64C99.56 101.08 104.44 96.92 107.12 92.16ZM109.96 94.56C114.08 99.2 117.56 101.84 120.2 103.36C118.8 104.48 117.16 106.44 116.4 108C113.64 105.72 110.28 102.6 105.6 96.64L109.96 94.56ZM91 109.64L94.72 108.2C96.04 110.8 97.28 114.12 97.6 116.32L93.6 117.96C93.32 115.76 92.24 112.28 91 109.64ZM87.2 120.24L91.08 119.28C91.6 121.92 92 125.28 92.16 127.56L88.04 128.64C88 126.32 87.6 122.88 87.2 120.24ZM82.6 119.6L86.88 120.28C86.68 123.88 86.12 127.68 85.32 130.12C84.32 129.6 82.28 128.96 81.2 128.68C82.08 126.4 82.44 122.84 82.6 119.6ZM82.96 109.2C82.72 108.24 81.92 105.96 81.36 104.68C82.16 104.44 82.84 103.72 83.6 102.56C84.4 101.44 86.76 97.08 88 92.92L92.76 94.84C91 99.04 88.32 103.6 85.8 106.68V106.8C85.8 106.8 82.96 108.32 82.96 109.2ZM82.96 109.2L82.84 105.6L84.92 104.2L91.88 103.8C91.6 105.08 91.36 106.92 91.32 107.96C85.16 108.48 83.8 108.8 82.96 109.2ZM83.28 118.64C83.04 117.68 82.24 115.32 81.68 114.04C82.76 113.76 83.6 112.84 84.88 111.32C86.24 109.84 90.36 103.92 92.76 98.24L97.04 100.96C94.24 106.4 90.12 112.04 86.16 116.12V116.24C86.16 116.24 83.28 117.76 83.28 118.64ZM83.28 118.64L83.04 114.92L85.12 113.52L95.4 112.16C95.2 113.4 95.08 115.24 95.12 116.24C85.92 117.68 84.28 118.12 83.28 118.64ZM91.56 119.24L95.2 118C96.12 120.4 97.04 123.44 97.48 125.44L93.64 126.88C93.28 124.8 92.36 121.64 91.56 119.24Z" fill="#1FA03B"/>
<path d="M33.68 52.08H68.4V60.36H62.64V56.44H39.16V59.64H33.68V52.08ZM62.72 42.72L66.56 46.52C57.88 48.32 45.92 49 35.76 49.12C35.64 47.92 35.12 46 34.64 44.96C44.6 44.8 56 44.08 62.72 42.72ZM38.6 49.88L43.16 48C44 48.96 44.92 50.36 45.24 51.36L40.4 53.4C40.16 52.44 39.36 50.96 38.6 49.88ZM47.24 49.52L51.8 47.84C52.6 48.84 53.4 50.24 53.64 51.24L48.8 53.04C48.6 52.08 47.92 50.6 47.24 49.52ZM56.72 59.68L60.56 56.92C62.92 58.6 65.72 61.12 66.96 63.04L62.84 66.12C61.72 64.24 59.04 61.52 56.72 59.68ZM47.04 57.24L49.76 54.36C51.72 55.08 54.24 56.4 55.52 57.48L52.64 60.64C51.48 59.56 49.04 58.08 47.04 57.24ZM59.36 46.6L65.08 48.36C63.6 50.48 62.16 52.52 61 53.84L56.64 52.24C57.6 50.64 58.76 48.32 59.36 46.6ZM58.52 66.4H59.64L60.56 66.24L64.24 68.64C58.96 76.8 47.72 79.84 35.32 80.96C34.84 79.64 33.4 77.28 32.36 76.16C44.44 75.6 54.8 73.28 58.52 67.2V66.4ZM39.76 64.88C44.92 71.68 55.48 74.84 69.96 75.48C68.8 76.8 67.4 79.28 66.72 80.84C51.84 79.72 41.68 75.68 35.2 66.68L39.76 64.88ZM47.04 63.24L52.04 64.96C48.68 69.2 43 72.44 37.76 74.36C36.88 73.36 35 71.44 33.88 70.56C39.2 69.12 44.4 66.52 47.04 63.24ZM43.52 57.88H48.84V60.04C48.84 61 49.08 61.08 50.28 61.08C50.8 61.08 52.84 61.08 53.52 61.08C54.4 61.08 54.64 60.84 54.8 59.64C55.8 60.24 57.8 60.88 59.16 61.12C58.68 64.16 57.36 65 54.16 65C53.12 65 50.48 65 49.48 65C44.64 65 43.52 63.84 43.52 60.08V57.88ZM39.6 57.32L43.96 59.2C43.08 61.44 41.8 63.84 39.84 65.44L35.8 62.4C37.44 61.2 38.84 59.2 39.6 57.32ZM46.48 66.4H59.64V70.52H42.36L46.48 66.4ZM83.04 45.76H118.32V55.36H112.36V51H88.72V55.36H83.04V45.76ZM89.44 52.28H111.6V57.16H89.44V52.28ZM95.32 60.08L99.8 57.68C107.84 64 107.64 75.48 104.08 78.68C102.6 80.28 101.2 80.76 98.96 80.8C98.04 80.84 96.92 80.8 95.8 80.76C95.72 79.16 95.24 76.88 94.2 75.28C95.64 75.44 96.84 75.48 97.84 75.48C98.72 75.48 99.32 75.32 99.8 74.44C101.32 72.72 101.52 65 95.32 60.08ZM99.72 54L104.52 56C100.2 60.48 92.8 63.56 85.92 65.32C85.36 64.2 83.92 61.88 83 60.8C89.52 59.64 96.32 57.32 99.72 54ZM97.84 61.84L101.48 64.56C97.56 67.36 90.6 70.44 85.4 72.04C84.76 70.76 83.6 68.8 82.56 67.6C87.68 66.6 94.48 64.12 97.84 61.84ZM100.28 66.32L104.24 69.32C99.68 73.24 91.56 77.2 85.04 79.24C84.4 77.8 83.16 75.72 82.04 74.44C88.52 73.04 96.4 69.64 100.28 66.32ZM111.36 64.2C112.76 68.64 115.6 72.44 120.04 74.28C118.76 75.36 117.04 77.56 116.24 79.04C111.04 76.44 108.04 71.6 106.2 65.36L111.36 64.2ZM111.24 57.28L116.04 61.12C112.32 63.96 107.8 66.96 104.32 68.8L100.56 65.44C103.96 63.44 108.48 60.08 111.24 57.28ZM96.6 44.04L102.8 42.28C103.64 43.8 104.56 45.84 104.84 47.24L98.28 49.2C98.08 47.84 97.36 45.64 96.6 44.04Z" fill="#1FA03B"/>
<path fill-rule="evenodd" clip-rule="evenodd" d="M99.0672 6.07031V15.3557C99.0672 17.257 97.7079 18.5688 96.4402 17.891L74.606 6.21584L8.91783 41.9448H2L73.9023 2.23241C74.3495 1.98915 74.8453 1.98716 75.2935 2.22684L96.1623 13.3858V4.71354C96.1623 3.21489 97.0294 2 98.0989 2H124.851C125.921 2 126.788 3.21489 126.788 4.71354V28.8107L147 42H140.713L125.028 32.167C124.331 31.73 123.883 30.76 123.883 29.6901V6.07031H99.0672Z" fill="#1FA03B" stroke="#1FA03B" stroke-width="3" stroke-linecap="square" stroke-linejoin="round"/>
</svg>
