<svg width="351" height="114" viewBox="0 0 351 114" fill="none" xmlns="http://www.w3.org/2000/svg">
<path d="M4.49951 73.8616L5.56741 94.0542L344.092 96.7111V73.3303L301.109 53.6844L302.95 4.21094H232.984V24.3668L175.907 7.87564L84.7675 42.6903L4.49951 73.8616Z" fill="white"/>
<path fill-rule="evenodd" clip-rule="evenodd" d="M236.129 7.24941V23.7872C236.129 27.1735 232.746 29.5099 229.591 28.3026L175.25 7.50861L93.5076 39.3261L11.7652 71.1437L0 70L173.499 0.413933C174.612 -0.0193292 175.845 -0.0228664 176.961 0.404006L228.899 20.2786V4.83294C228.899 2.16378 231.057 0 233.719 0H300.3C302.962 0 305.12 2.16378 305.12 4.83294V47.7512L350.499 69.6113L339.776 71.242L300.741 53.7288C299.007 52.9506 297.89 51.2229 297.89 49.3173V7.24941H236.129Z" fill="#1FA03B"/>
<path d="M270.572 78.3553H288.121V84.2728H270.572V78.3553ZM267.307 86.5174H289.141V92.3839H272.766V113.248H267.307V86.5174ZM269.501 96.5669H289.855V102.382H269.501V96.5669ZM286.845 86.5174H292.355V106.769C292.355 109.065 292.151 110.8 290.926 111.82C289.702 112.789 288.427 112.942 286.743 112.942C286.539 111.259 285.825 108.708 285.06 107.127C285.672 107.127 286.182 107.127 286.437 107.127C286.743 107.127 286.845 107.025 286.845 106.667V86.5174ZM274.296 88.864H279.244V112.483H274.296V88.864ZM280.52 88.864H285.417V112.483H280.52V88.864ZM278.581 63.9697L283.734 66.4183C279.755 73.6622 273.684 80.0388 268.073 84.2728C267.001 82.4874 265.165 80.1408 263.43 78.6104C268.94 75.3456 275.163 70.0403 278.581 63.9697ZM282.203 67.0305C287.457 72.948 291.896 76.3148 295.262 78.2533C293.477 79.6817 291.385 82.1813 290.416 84.1708C286.896 81.2631 282.611 77.2841 276.643 69.6832L282.203 67.0305ZM258.023 86.2623L262.767 84.4259C264.451 87.7417 266.032 91.9758 266.44 94.7815L261.339 96.873C260.982 94.0673 259.604 89.6292 258.023 86.2623ZM253.177 99.7807L258.125 98.5564C258.788 101.923 259.298 106.208 259.502 109.116L254.248 110.493C254.197 107.535 253.687 103.148 253.177 99.7807ZM247.31 98.9645L252.769 99.8318C252.514 104.423 251.799 109.269 250.779 112.381C249.504 111.718 246.902 110.902 245.525 110.544C246.647 107.637 247.106 103.097 247.31 98.9645ZM247.769 85.7012C247.463 84.4769 246.443 81.5692 245.729 79.9367C246.749 79.6307 247.616 78.7124 248.586 77.2331C249.606 75.8047 252.616 70.2443 254.197 64.939L260.268 67.3876C258.023 72.7439 254.605 78.5594 251.391 82.4874V82.6404C251.391 82.6404 247.769 84.5789 247.769 85.7012ZM247.769 85.7012L247.616 81.11L250.269 79.3246L259.145 78.8145C258.788 80.4469 258.482 82.7935 258.431 84.1198C250.575 84.783 248.841 85.1911 247.769 85.7012ZM248.178 97.7402C247.871 96.5159 246.851 93.5062 246.137 91.8737C247.514 91.5167 248.586 90.3434 250.218 88.4049C251.953 86.5174 257.207 78.9675 260.268 71.7237L265.726 75.1926C262.155 82.1303 256.901 89.3231 251.85 94.5264V94.6795C251.85 94.6795 248.178 96.6179 248.178 97.7402ZM248.178 97.7402L247.871 92.996L250.524 91.2106L263.634 89.4761C263.379 91.0575 263.226 93.4041 263.277 94.6795C251.544 96.5159 249.453 97.0771 248.178 97.7402ZM258.737 98.5054L263.379 96.924C264.553 99.9848 265.726 103.862 266.287 106.412L261.39 108.249C260.931 105.596 259.757 101.566 258.737 98.5054Z" fill="#1FA03B"/>
<path d="M191.197 73.1037H206.96V108.047H191.197V101.569H200.277V79.5313H191.197V73.1037ZM186.912 73.1037H193.594V111.669H186.912V73.1037ZM190.993 86.418H203.44V92.7946H190.993V86.418ZM193.849 64.7886L201.96 65.9109C200.736 69.5328 199.41 73.2057 198.39 75.6543L192.472 74.379C193.084 71.6243 193.696 67.6963 193.849 64.7886ZM213.387 72.5935H227.875V79.3272H213.387V72.5935ZM225.324 72.5935H232.16C232.16 72.5935 232.16 74.9401 232.109 75.8073C231.497 98.5081 230.987 106.772 228.844 109.578C227.263 111.822 225.681 112.435 223.437 112.843C221.396 113.2 218.233 113.149 215.173 113.047C215.071 111.057 214.05 107.894 212.724 105.854C215.989 106.16 219.05 106.16 220.427 106.16C221.447 106.16 222.008 105.956 222.672 105.242C224.304 103.507 224.865 94.5801 225.324 73.9709V72.5935ZM213.03 64.9416L220.172 66.625C218.08 74.1239 214.612 82.0309 211.143 86.9281C209.816 85.7038 206.756 83.5613 205.072 82.5921C208.439 78.409 211.398 71.5223 213.03 64.9416ZM210.429 88.1525L216.244 84.8876C218.54 88.3565 221.855 93.2027 223.386 96.2125L217.111 100.038C215.785 96.9267 212.724 91.9274 210.429 88.1525Z" fill="#1FA03B"/>
<path d="M125.442 68.5617H170.435V80.8047H162.834V75.2443H132.685V80.8047H125.442V68.5617ZM133.604 76.8767H161.865V83.1003H133.604V76.8767ZM141.103 86.8242L146.816 83.7635C157.07 91.8235 156.814 106.464 152.274 110.545C150.387 112.586 148.601 113.198 145.745 113.249C144.571 113.3 143.143 113.249 141.715 113.198C141.613 111.157 141 108.25 139.674 106.209C141.511 106.413 143.041 106.464 144.316 106.464C145.439 106.464 146.204 106.26 146.816 105.138C148.754 102.944 149.01 93.0988 141.103 86.8242ZM146.714 79.0703L152.835 81.6209C147.326 87.3344 137.889 91.2624 129.115 93.5069C128.4 92.0786 126.564 89.1198 125.391 87.7425C133.706 86.2631 142.378 83.3044 146.714 79.0703ZM144.316 89.0688L148.958 92.5377C143.959 96.1086 135.083 100.037 128.451 102.077C127.635 100.445 126.156 97.945 124.829 96.4147C131.359 95.1393 140.031 91.9765 144.316 89.0688ZM147.428 94.7823L152.478 98.6082C146.663 103.607 136.307 108.658 127.992 111.259C127.176 109.423 125.595 106.77 124.166 105.138C132.43 103.352 142.48 99.0163 147.428 94.7823ZM161.559 92.0786C163.344 97.741 166.966 102.587 172.628 104.934C170.996 106.311 168.802 109.117 167.782 111.004C161.151 107.689 157.325 101.516 154.978 93.5579L161.559 92.0786ZM161.406 83.2533L167.527 88.1506C162.783 91.7725 157.019 95.5985 152.58 97.945L147.785 93.66C152.121 91.1093 157.886 86.8243 161.406 83.2533ZM142.735 66.3681L150.642 64.1235C151.713 66.062 152.886 68.6637 153.244 70.4491L144.877 72.9488C144.622 71.2143 143.704 68.4086 142.735 66.3681Z" fill="#1FA03B"/>
<path d="M64.5316 76.6206H108.811V87.1803H101.465V82.181H71.5203V86.262H64.5316V76.6206ZM101.567 64.6836L106.464 69.5298C95.3943 71.8254 80.1415 72.6926 67.1842 72.8456C67.0312 71.3153 66.368 68.8666 65.7559 67.5403C78.4581 67.3363 92.9967 66.418 101.567 64.6836ZM70.8061 73.8149L76.6216 71.4173C77.6929 72.6416 78.8662 74.427 79.2743 75.7024L73.1017 78.304C72.7956 77.0797 71.7754 75.1922 70.8061 73.8149ZM81.8249 73.3558L87.6404 71.2132C88.6606 72.4886 89.6809 74.274 89.987 75.5493L83.8144 77.8449C83.5594 76.6206 82.6921 74.7331 81.8249 73.3558ZM93.915 86.313L98.8122 82.7932C101.822 84.9357 105.393 88.1495 106.974 90.5981L101.72 94.5261C100.292 92.1285 96.8737 88.6596 93.915 86.313ZM81.5699 83.2013L85.0387 79.5283C87.5384 80.4466 90.7522 82.13 92.3846 83.5073L88.7117 87.5373C87.2323 86.16 84.1205 84.2725 81.5699 83.2013ZM97.2818 69.6318L104.577 71.8764C102.689 74.5801 100.853 77.1817 99.3733 78.8652L93.8129 76.8247C95.0372 74.7841 96.5166 71.8254 97.2818 69.6318ZM96.2105 94.8832H97.6389L98.8122 94.6791L103.505 97.7399C96.7717 108.147 82.4371 112.024 66.6231 113.452C66.0109 111.768 64.1745 108.759 62.8481 107.33C78.254 106.616 91.4663 103.657 96.2105 95.9035V94.8832ZM72.2855 92.9447C78.8662 101.617 92.3336 105.647 110.8 106.463C109.321 108.147 107.535 111.309 106.668 113.299C87.6914 111.87 74.7341 106.718 66.4701 95.2403L72.2855 92.9447ZM81.5699 90.8532L87.9465 93.0467C83.6614 98.4541 76.4176 102.586 69.7349 105.035C68.6126 103.759 66.215 101.311 64.7866 100.189C71.5713 98.3521 78.203 95.0362 81.5699 90.8532ZM77.0807 84.0175H83.8654V86.7722C83.8654 87.9965 84.1715 88.0985 85.7019 88.0985C86.3651 88.0985 88.9667 88.0985 89.8339 88.0985C90.9562 88.0985 91.2623 87.7924 91.4663 86.262C92.7417 87.0272 95.2923 87.8434 97.0267 88.1495C96.4146 92.0265 94.7312 93.0977 90.6501 93.0977C89.3238 93.0977 85.957 93.0977 84.6816 93.0977C78.5091 93.0977 77.0807 91.6184 77.0807 86.8232V84.0175ZM72.0815 83.3033L77.6419 85.7009C76.5196 88.5576 74.8872 91.6184 72.3875 93.6589L67.2352 89.7819C69.3268 88.2515 71.1122 85.7009 72.0815 83.3033ZM80.8557 94.8832H97.6389V100.138H75.6014L80.8557 94.8832Z" fill="#1FA03B"/>
</svg>
