<svg width="685" height="485" viewBox="0 0 685 485" fill="none" xmlns="http://www.w3.org/2000/svg">
<path fill-rule="evenodd" clip-rule="evenodd" d="M0 79V485H685V79L342.5 0L0 79Z" fill="#1FA03B"/>
</svg>
