<svg width="18" height="23" viewBox="0 0 18 23" fill="none" xmlns="http://www.w3.org/2000/svg">
    <path d="M9.15 0.593262C9.0999 0.593262 9.0499 0.593682 9 0.59452C8.9501 0.593682 8.9001 0.593262 8.85 0.593262C3.96228 0.593262 -7.15256e-07 3.97544 -7.15256e-07 9.6435C-7.15256e-07 15.3116 6.45 22.5933 8.85 22.5933C8.89838 22.5933 8.94841 22.5903 9 22.5845C9.05159 22.5903 9.10162 22.5933 9.15 22.5933C11.55 22.5933 18 15.3116 18 9.6435C18 3.97544 14.0377 0.593262 9.15 0.593262Z" fill="black"/>
    <ellipse cx="3.75" cy="3.87324" rx="3.75" ry="3.87324" transform="matrix(-1 0 0 1 12.9001 5.55273)" fill="white"/>
</svg>
